8 -8 -80 -16 -32 -72 728
-8 -16 -24 -32 -24 -80 -56 -32 -16 -48 -8 -48 -24 -64 400
-8 64 -24 -80 -32 -56 -40 -72 -40 504
40 -8 -16 -56 -64 768
-32 952
56 -48 -24 -48 -64 -64 -32 -16 -64 -48 -64 -48 -64 -72 -56 104
-8 24 -80 -32 -80 -80 640
-72 -56 -56 -48 728
24 -24 16 -48 -16 -72 -64 -8 -48 -48 -48 -48 -48 -72 296
-16 -32 -24 -24 -8 -16 -56 -24 -72 -16 -40 -48 -72 -16 416
88 -56 -40 -40 -40 -80 600
-48 -16 912
48 -16 -72 -80 -80 -64 -64 512
-56 -72 848
-8 -8 32 -64 -56 -80 -56 -16 -32 -72 -72 408
32 -48 -64 -48 768
-32 -32 -32 -8 -72 -8 -72 -48 -16 -24 -48 -64 -48 -24 -8 -80 248
-24 -16 48 -64 -64 -56 -80 -48 528
24 -32 -24 -40 -72 760
48 -40 -80 -64 -80 -16 -24 584
