20

6
6
5
-1
7
1
5
9
9
3

8
2
9

7
3
4
10
4
-1
7
-1
1
-1
9
4
-1
8
-1
3
9
-1
5
4
7
9
9
-1
1
-1

4
-1
1
-1
7
9
2
1
-1
10
3

1
10
-1
6
9
-1
9
1

4
8
5
-1
3
9
9
-1
5
9
-1
7
2
8
6
-1

1
10
8
10
6

7
-1
1
2
-1
9
5
6
10
-1
7

2
8
10
3
-1
8
5
7
-1
2
-1
4
-1
8
-1
6
4
-1
4

6
-1
1
-1
8
-1
4
3
4
2
-1

2
7

8
8
2
-1
3
7
9
-1
1
4
10
4
10
1
9
1
-1
3

5
-1
4

4
4
6
9
-1
1
2
-1
5
9
-1

10
4
-1
10
2
8
-1
9
8
10
9
-1
8
1

4
1
5
1
-1
5
-1
8
3
1
4
7
9

6
2
-1
4
-1
5
-1

3
10
3
3
8
6
3
6
-1
6
7
7
-1
7
-1
3
9
-1
2
-1
7
2
-1

1
-1
3
4
4
-1
2
-1
8
7
-1
4
-1
7
9
7
3
10
2
6
3
4

9
10
8
4
